<svg width="213" height="24" viewBox="0 0 213 24" fill="none" xmlns="http://www.w3.org/2000/svg">
<path d="M17.0928 9.36C17.0928 11.84 16.2768 13.912 14.6448 15.576C13.0128 17.24 10.9728 18.072 8.52475 18.072C6.15675 18.072 4.14075 17.24 2.47675 15.576C0.82875 13.912 0.00475007 11.896 0.00475007 9.528C0.00475007 7.144 0.83675 5.128 2.50075 3.48C4.16475 1.816 6.18875 0.983999 8.57275 0.983999C10.9088 0.983999 12.9088 1.808 14.5728 3.456C16.2528 5.104 17.0928 7.072 17.0928 9.36ZM16.2288 9.696C16.2288 7.456 15.4928 5.584 14.0208 4.08C12.5488 2.56 10.7248 1.8 8.54875 1.8C6.42075 1.8 4.60475 2.56 3.10075 4.08C1.61275 5.584 0.86875 7.408 0.86875 9.552C0.86875 11.696 1.61275 13.52 3.10075 15.024C4.58875 16.512 6.40475 17.256 8.54875 17.256C10.6288 17.256 12.4288 16.512 13.9488 15.024C15.4688 13.52 16.2288 11.744 16.2288 9.696ZM11.7168 11.04L13.3488 11.376C12.6288 13.888 11.0528 15.144 8.62075 15.144C7.11675 15.144 5.90075 14.648 4.97275 13.656C4.06075 12.648 3.60475 11.336 3.60475 9.72C3.60475 8.024 4.09275 6.64 5.06875 5.568C6.04475 4.48 7.30875 3.936 8.86075 3.936C9.99675 3.936 10.9168 4.2 11.6208 4.728C12.3248 5.256 12.8688 6.096 13.2528 7.248L11.6448 7.704C11.3088 6.872 10.9328 6.296 10.5168 5.976C10.1168 5.656 9.55675 5.496 8.83675 5.496C7.78075 5.496 6.94075 5.872 6.31675 6.624C5.69275 7.36 5.38075 8.36 5.38075 9.624C5.38075 10.824 5.67675 11.776 6.26875 12.48C6.86075 13.184 7.65275 13.536 8.64475 13.536C9.44475 13.536 10.0848 13.336 10.5648 12.936C11.0608 12.536 11.4448 11.904 11.7168 11.04ZM37.6206 18H27.0366V15.96C28.5726 15.144 30.2446 13.888 32.0526 12.192C33.0286 11.296 33.7966 10.416 34.3566 9.552C34.9166 8.672 35.1966 7.704 35.1966 6.648C35.1966 5.688 34.9246 4.936 34.3806 4.392C33.8526 3.832 33.1086 3.552 32.1486 3.552C31.0766 3.552 30.3006 3.848 29.8206 4.44C29.3406 5.032 29.1006 5.8 29.1006 6.744C29.1006 7.256 29.1966 7.896 29.3886 8.664H27.2766C27.0846 8.008 26.9886 7.368 26.9886 6.744C26.9886 5.096 27.4926 3.824 28.5006 2.928C29.4446 2.096 30.6846 1.68 32.2206 1.68C33.5966 1.68 34.7566 2.08 35.7006 2.88C36.8526 3.84 37.4286 5.144 37.4286 6.792C37.4286 9.112 36.1006 11.368 33.4446 13.56C32.2926 14.488 31.1006 15.352 29.8686 16.152H37.6206V18ZM40.3088 9.984C40.3088 7.536 40.8208 5.544 41.8448 4.008C42.8848 2.456 44.3008 1.68 46.0928 1.68C47.7888 1.68 49.1888 2.416 50.2928 3.888C51.4128 5.36 51.9728 7.344 51.9728 9.84C51.9728 12.32 51.4608 14.328 50.4368 15.864C49.4128 17.384 47.9728 18.144 46.1168 18.144C45.4448 18.144 44.7888 18.008 44.1488 17.736C43.5088 17.464 42.8928 17.04 42.3008 16.464C41.7088 15.872 41.2288 15.024 40.8608 13.92C40.4928 12.8 40.3088 11.488 40.3088 9.984ZM42.4448 10.08C42.4448 11.952 42.7648 13.456 43.4048 14.592C44.0448 15.712 44.9648 16.272 46.1648 16.272C46.9008 16.272 47.5248 16.056 48.0368 15.624C48.5488 15.192 48.9248 14.624 49.1648 13.92C49.4048 13.2 49.5728 12.52 49.6688 11.88C49.7648 11.224 49.8128 10.56 49.8128 9.888C49.8128 9.488 49.7968 9.088 49.7648 8.688C49.7328 8.272 49.6448 7.736 49.5008 7.08C49.3728 6.424 49.1888 5.856 48.9488 5.376C48.7088 4.896 48.3408 4.48 47.8448 4.128C47.3648 3.76 46.8048 3.576 46.1648 3.576C43.6848 3.576 42.4448 5.744 42.4448 10.08ZM60.568 18H58.312V6.168H54.832V4.68C56.656 4.68 57.864 4.208 58.456 3.264C58.728 2.848 58.896 2.368 58.96 1.824H60.568V18ZM67.7442 14.112L69.8322 13.728C70.2002 15.456 71.1682 16.32 72.7362 16.32C73.6162 16.32 74.3522 16.032 74.9442 15.456C75.4722 14.944 75.8642 14.232 76.1202 13.32C76.3922 12.408 76.5282 11.536 76.5282 10.704C75.4562 12.08 74.1202 12.768 72.5202 12.768C70.9522 12.768 69.6802 12.264 68.7042 11.256C67.7282 10.232 67.2402 8.928 67.2402 7.344C67.2402 6.672 67.3362 6.024 67.5282 5.4C67.7362 4.776 68.0402 4.184 68.4402 3.624C68.8562 3.064 69.4322 2.616 70.1682 2.28C70.9042 1.928 71.7522 1.752 72.7122 1.752C74.6802 1.752 76.1522 2.456 77.1282 3.864C78.1042 5.256 78.5922 7.24 78.5922 9.816C78.5922 12.568 77.9922 14.728 76.7922 16.296C75.8482 17.528 74.4482 18.144 72.5922 18.144C71.2322 18.144 70.1442 17.744 69.3282 16.944C68.5122 16.144 67.9842 15.2 67.7442 14.112ZM76.3122 7.56C76.3122 6.472 75.9922 5.536 75.3522 4.752C74.7122 3.952 73.8242 3.552 72.6882 3.552C72.0482 3.552 71.4962 3.688 71.0322 3.96C70.5682 4.216 70.2242 4.56 70.0002 4.992C69.7762 5.424 69.6162 5.848 69.5202 6.264C69.4242 6.664 69.3762 7.064 69.3762 7.464C69.3762 8.568 69.7042 9.408 70.3602 9.984C71.0162 10.56 71.8162 10.848 72.7602 10.848C73.9282 10.848 74.8082 10.512 75.4002 9.84C76.0082 9.168 76.3122 8.408 76.3122 7.56ZM93.628 1.056V13.512C93.628 14.088 93.612 14.52 93.58 14.808C93.564 15.096 93.484 15.44 93.34 15.84C93.212 16.24 93.004 16.608 92.716 16.944C91.868 17.936 90.636 18.432 89.02 18.432C88.316 18.432 87.548 18.352 86.716 18.192V15.72C87.356 16.04 88.1 16.2 88.948 16.2C89.876 16.2 90.54 15.904 90.94 15.312C91.116 15.056 91.22 14.744 91.252 14.376C91.3 13.992 91.324 13.376 91.324 12.528V1.056H93.628ZM98.5 12.696V12.84C98.5 13.88 98.804 14.824 99.412 15.672C100.02 16.504 100.94 16.92 102.172 16.92C103.052 16.92 103.724 16.656 104.188 16.128C104.668 15.584 104.988 14.968 105.148 14.28L107.092 14.544C106.244 17.088 104.54 18.36 101.98 18.36C100.428 18.36 99.116 17.864 98.044 16.872C96.972 15.864 96.436 14.32 96.436 12.24C96.436 11.216 96.604 10.312 96.94 9.528C97.292 8.728 97.74 8.112 98.284 7.68C98.844 7.232 99.428 6.896 100.036 6.672C100.66 6.448 101.284 6.336 101.908 6.336C103.316 6.336 104.532 6.84 105.556 7.848C106.58 8.84 107.092 10.352 107.092 12.384V12.696H98.5ZM98.548 11.304H105.004C105.004 10.344 104.7 9.528 104.092 8.856C103.484 8.168 102.708 7.824 101.764 7.824C100.804 7.824 100.052 8.16 99.508 8.832C98.964 9.488 98.644 10.312 98.548 11.304ZM111.448 18H109.624V1.056H111.448V18ZM116.44 18H114.616V1.056H116.44V18ZM126.208 6.696H128.2L123.448 20.064C122.968 21.424 122.496 22.352 122.032 22.848C121.568 23.344 120.864 23.592 119.92 23.592C119.36 23.592 118.792 23.512 118.216 23.352V21.624C118.6 21.752 119.024 21.816 119.488 21.816C120.048 21.816 120.472 21.656 120.76 21.336C121.064 21.032 121.376 20.408 121.696 19.464L122.176 18.072L118.336 6.696H120.376L123.208 15.672L126.208 6.696ZM138.461 3.264H136.613V1.056H138.461V3.264ZM138.461 18H136.613V6.696H138.461V18ZM132.485 6.696H134.621V8.28H132.485V18H130.613V8.28H128.741V6.696H130.613V5.712C130.613 4.208 130.709 3.216 130.901 2.736C131.301 1.696 132.197 1.176 133.589 1.176C134.005 1.176 134.469 1.224 134.981 1.32V2.832C134.741 2.752 134.389 2.712 133.925 2.712C132.965 2.712 132.485 3.32 132.485 4.536V6.696ZM140.705 14.352L142.889 14.04C142.889 14.92 143.097 15.584 143.513 16.032C144.041 16.608 144.889 16.896 146.057 16.896C146.713 16.896 147.313 16.76 147.857 16.488C148.401 16.2 148.673 15.704 148.673 15C148.673 14.68 148.609 14.408 148.481 14.184C148.353 13.96 148.145 13.784 147.857 13.656C147.585 13.528 147.345 13.44 147.137 13.392C146.945 13.328 146.673 13.264 146.321 13.2L145.217 12.984C143.729 12.696 142.681 12.288 142.073 11.76C141.481 11.216 141.185 10.528 141.185 9.696C141.185 8.56 141.617 7.72 142.481 7.176C143.361 6.616 144.393 6.336 145.577 6.336C146.633 6.336 147.513 6.536 148.217 6.936C148.921 7.336 149.449 7.8 149.801 8.328C150.105 8.792 150.305 9.368 150.401 10.056L148.337 10.296C148.321 9.784 148.265 9.432 148.169 9.24C147.993 8.872 147.657 8.544 147.161 8.256C146.665 7.952 146.049 7.8 145.313 7.8C144.593 7.8 144.041 7.976 143.657 8.328C143.273 8.664 143.081 9.04 143.081 9.456C143.081 9.92 143.297 10.28 143.729 10.536C144.161 10.776 144.857 11.008 145.817 11.232L146.921 11.496C148.137 11.784 149.065 12.168 149.705 12.648C150.361 13.128 150.689 13.84 150.689 14.784C150.689 15.856 150.241 16.72 149.345 17.376C148.449 18.032 147.321 18.36 145.961 18.36C142.857 18.36 141.105 17.024 140.705 14.352ZM162.437 18H160.493V11.376C160.493 10.544 160.421 9.92 160.277 9.504C159.925 8.512 159.165 8.016 157.997 8.016C156.877 8.016 156.037 8.488 155.477 9.432C155.125 10.04 154.949 11.024 154.949 12.384V18H153.029V1.056H154.949V7.848C155.877 6.84 157.021 6.336 158.381 6.336C161.085 6.336 162.437 7.784 162.437 10.68V18ZM167.873 18H165.497V15.288H167.873V18ZM173.621 8.28V15.552C173.621 15.952 173.685 16.24 173.813 16.416C173.941 16.592 174.157 16.68 174.461 16.68C174.781 16.68 175.181 16.592 175.661 16.416V18C174.765 18.128 174.157 18.192 173.837 18.192C172.957 18.192 172.373 18.032 172.085 17.712C171.797 17.392 171.653 16.872 171.653 16.152V8.28H169.829V6.696H171.653V3.12H173.621V6.696H175.661V8.28H173.621ZM179.453 12.696V12.84C179.453 13.88 179.757 14.824 180.365 15.672C180.973 16.504 181.893 16.92 183.125 16.92C184.005 16.92 184.677 16.656 185.141 16.128C185.621 15.584 185.941 14.968 186.101 14.28L188.045 14.544C187.197 17.088 185.493 18.36 182.933 18.36C181.381 18.36 180.069 17.864 178.997 16.872C177.925 15.864 177.389 14.32 177.389 12.24C177.389 11.216 177.557 10.312 177.893 9.528C178.245 8.728 178.693 8.112 179.237 7.68C179.797 7.232 180.381 6.896 180.989 6.672C181.613 6.448 182.237 6.336 182.861 6.336C184.269 6.336 185.485 6.84 186.509 7.848C187.533 8.84 188.045 10.352 188.045 12.384V12.696H179.453ZM179.501 11.304H185.957C185.957 10.344 185.653 9.528 185.045 8.856C184.437 8.168 183.661 7.824 182.717 7.824C181.757 7.824 181.005 8.16 180.461 8.832C179.917 9.488 179.597 10.312 179.501 11.304ZM198.761 13.728L200.825 13.92C200.265 16.88 198.489 18.36 195.497 18.36C193.753 18.36 192.385 17.816 191.393 16.728C190.401 15.624 189.905 14.192 189.905 12.432C189.905 10.656 190.377 9.2 191.321 8.064C192.281 6.912 193.641 6.336 195.401 6.336C196.953 6.336 198.161 6.728 199.025 7.512C199.905 8.28 200.433 9.152 200.609 10.128L198.497 10.32C198.353 9.488 198.009 8.848 197.465 8.4C196.937 7.952 196.257 7.728 195.425 7.728C194.449 7.728 193.633 8.096 192.977 8.832C192.337 9.552 192.017 10.712 192.017 12.312C192.017 13.688 192.321 14.792 192.929 15.624C193.537 16.456 194.409 16.872 195.545 16.872C197.433 16.872 198.505 15.824 198.761 13.728ZM212.008 18H210.064V11.376C210.064 10.544 209.992 9.92 209.848 9.504C209.496 8.512 208.736 8.016 207.568 8.016C206.448 8.016 205.608 8.488 205.048 9.432C204.696 10.04 204.52 11.024 204.52 12.384V18H202.6V1.056H204.52V7.848C205.448 6.84 206.592 6.336 207.952 6.336C210.656 6.336 212.008 7.784 212.008 10.68V18Z" fill="white"/>
</svg>
