<svg width="145" height="93" viewBox="0 0 145 93" fill="none" xmlns="http://www.w3.org/2000/svg">
<path opacity="0.5" d="M112.502 92.3104H22.9961C22.7207 92.3104 22.4453 92.0345 22.4453 91.7587V50.1035C22.4453 49.8276 22.7207 49.5518 22.9961 49.5518H112.502C112.778 49.5518 113.053 49.8276 113.053 50.1035V91.7587C113.053 92.0345 112.778 92.3104 112.502 92.3104Z" fill="black"/>
<g opacity="0.5">
<path opacity="0.5" d="M111.263 43.7586H22.5831C22.0322 43.7586 21.6191 43.3448 21.6191 42.7931V1.96552C21.6191 1.41379 22.0322 1 22.5831 1H111.263C111.814 1 112.227 1.41379 112.227 1.96552V42.931C112.227 43.3448 111.814 43.7586 111.263 43.7586Z" fill="#D7FFE8"/>
<path opacity="0.5" d="M111.263 43.7586H22.5831C22.0322 43.7586 21.6191 43.3448 21.6191 42.7931V1.96552C21.6191 1.41379 22.0322 1 22.5831 1H111.263C111.814 1 112.227 1.41379 112.227 1.96552V42.931C112.227 43.3448 111.814 43.7586 111.263 43.7586Z" stroke="#282828" stroke-linecap="round" stroke-linejoin="round" stroke-dasharray="3.01 3.01"/>
</g>
<path d="M111.676 91.3448H22.1699C21.8945 91.3448 21.6191 91.069 21.6191 90.7931V49.1379C21.6191 48.862 21.8945 48.5862 22.1699 48.5862H111.676C111.952 48.5862 112.227 48.862 112.227 49.1379V90.7931C112.227 91.069 111.952 91.3448 111.676 91.3448Z" fill="#4DD795" stroke="#282828" stroke-miterlimit="10"/>
<path opacity="0.5" d="M68.0247 17.1379V28.8621" stroke="#282828" stroke-width="2" stroke-miterlimit="10" stroke-linecap="round" stroke-linejoin="round"/>
<path opacity="0.5" d="M62.2412 23.069H73.8082" stroke="#282828" stroke-width="2" stroke-miterlimit="10" stroke-linecap="round" stroke-linejoin="round"/>
<path opacity="0.5" d="M71.6051 58.2414H28.9175C28.7798 58.2414 28.6421 58.2414 28.6421 58.1034V55.8965C28.6421 55.8965 28.7798 55.7586 28.9175 55.7586H71.6051C71.7428 55.7586 71.8805 55.7586 71.8805 55.8965V58.1034C71.8805 58.1034 71.8805 58.2414 71.6051 58.2414Z" fill="#282828"/>
<path d="M133.571 46.6552C132.194 34.9311 122.141 35.069 122.141 35.069C122.141 35.069 133.158 34.6552 133.571 23.6207C133.571 23.6207 135.223 35.4828 145 35.069C145 35.069 134.397 35.069 133.571 46.6552Z" fill="#111111"/>
<path d="M5.50807 74.3793C4.81956 68.7242 0 68.8621 0 68.8621C0 68.8621 5.23267 68.7242 5.50807 63.3448C5.50807 63.3448 6.33428 69 11.0161 68.8621C11.0161 68.8621 5.92118 68.8621 5.50807 74.3793Z" fill="#111111"/>
<path opacity="0.5" d="M29.4683 69.1379H103.827" stroke="#282828" stroke-miterlimit="10" stroke-linecap="round" stroke-linejoin="round"/>
<path opacity="0.5" d="M29.4683 81.4138H103.827" stroke="#282828" stroke-miterlimit="10" stroke-linecap="round" stroke-linejoin="round"/>
</svg>
